The Value of Loyalty: Customer impact on Online Store Revenue
…
Next step is model prediction and model performance evaluation on the train data.

#Computing model predictions
lasso_predicts <- predict(lasso_fit, new_data = train_data)

#augment to evaluate performance metric
lasso_aug <- augment(lasso_fit, train_data)
lasso_aug %>% select(sum_purchase,.pred)

# A tibble: 3,087 × 2
   sum_purchase  .pred
          <dbl>  <dbl>
 1         263.   547.
 2        4195.  3580.
 3        1376.  1445.
 4         787.   547.
 5         123.   248.
 6       18283. 13456.
 7         704.   380.
 8         114.   248.
 9         175.   248.
10         867.  1186.
# ℹ 3,077 more rows
…
We can see that the simple GAM model has the lowest RMSE, suggesting it performs well in prediction accuracy. However, when subjected to cross-validation, the GAM model’s RMSE reveal a decrease in prediction accuracy across various subsets of the data compared to its initial evaluation based solely on the training data. Both the tuned/cross-validated and untuned Lasso models demonstrate the next lowest RMSE values. For simplicity, we choose the untuned Lasso model as our final selection.

Finally, we evaluate the performance of the selected model i.e. simple Lasso model by fitting it on the testing set.

#Computing model predictions
lasso_test_predicts <- predict(lasso_fit, new_data = test_data)

#augment to evaluate performance metric
lasso_test_aug <- augment(lasso_fit, test_data)
lasso_test_aug %>% select(sum_purchase,.pred)

# A tibble: 1,030 × 2
   sum_purchase .pred
          <dbl> <dbl>
 1         294.  380.
 2         459.  380.
 3         334.  680.
 4         547.  380.
 5        1143.  979.
 6         669.  380.
 7         684.  979.
 8         777.  380.
 9        1345.  680.
10         216.  380.
# ℹ 1,020 more rows
…
