Cleaning data ‘Superstore’
…
      n
1 43563

#Checking for matches
matched_sales <- negative_sales %>%
  rowwise() %>%
  mutate(match_found = any(StockCode %in% positive_sales$StockCode &
                             CustomerID %in% positive_sales$CustomerID))

count(matched_sales)

# A tibble: 1,372 × 1
# Rowwise: 
       n
   <int>
 1     1
 2     1
 3     1
 4     1
 5     1
 6     1
 7     1
 8     1
 9     1
10     1
# ℹ 1,362 more rows
…
